﻿Log file open, 07/22/19 14:00:17
LogWindows: Failed to load 'aqProf.dll' (GetLastError=126)
LogWindows: File 'aqProf.dll' does not exist
LogWindows: Failed to load 'VtuneApi.dll' (GetLastError=126)
LogWindows: File 'VtuneApi.dll' does not exist
LogWindows: Failed to load 'VtuneApi32e.dll' (GetLastError=126)
LogWindows: File 'VtuneApi32e.dll' does not exist
LogConsoleResponse: Display: Failed to find resolution value strings in scalability ini. Falling back to default.
LogInit: Display: Running engine for game: DMBasic_SSantos
LogPakFile: Registered encryption key '00000000000000000000000000000000': 0 pak files mounted, 0 remain pending
LogPlatformFile: Not using cached read wrapper
LogTaskGraph: Started task graph with 5 named threads and 23 total threads with 3 sets of task threads.
LogStats: Stats thread started at 0.256098
LogD3D11RHI: Loaded GFSDK_Aftermath_Lib.x64.dll
LogICUInternationalization: ICU TimeZone Detection - Raw Offset: -7:00, Platform Override: ''
LogPluginManager: Mounting plugin Paper2D
LogPluginManager: Mounting plugin AISupport
LogPluginManager: Mounting plugin LightPropagationVolume
LogPluginManager: Mounting plugin ActorLayerUtilities
LogPluginManager: Mounting plugin AnimationSharing
LogPluginManager: Mounting plugin CLionSourceCodeAccess
LogPluginManager: Mounting plugin CodeLiteSourceCodeAccess
LogPluginManager: Mounting plugin GitSourceControl
LogPluginManager: Mounting plugin KDevelopSourceCodeAccess
LogPluginManager: Mounting plugin NullSourceCodeAccess
LogPluginManager: Mounting plugin PerforceSourceControl
LogPluginManager: Mounting plugin SubversionSourceControl
LogPluginManager: Mounting plugin UObjectPlugin
LogPluginManager: Mounting plugin VisualStudioCodeSourceCodeAccess
LogPluginManager: Mounting plugin VisualStudioSourceCodeAccess
LogPluginManager: Mounting plugin XCodeSourceCodeAccess
LogPluginManager: Mounting plugin AssetManagerEditor
LogPluginManager: Mounting plugin CryptoKeys
LogPluginManager: Mounting plugin DataValidation
LogPluginManager: Mounting plugin FacialAnimation
LogPluginManager: Mounting plugin GameplayTagsEditor
LogPluginManager: Mounting plugin MacGraphicsSwitching
LogPluginManager: Mounting plugin MaterialAnalyzer
LogPluginManager: Mounting plugin MobileLauncherProfileWizard
LogPluginManager: Mounting plugin PluginBrowser
LogPluginManager: Mounting plugin SpeedTreeImporter
LogPluginManager: Mounting plugin DatasmithContent
LogPluginManager: Mounting plugin VariantManagerContent
LogPluginManager: Mounting plugin AlembicImporter
LogPluginManager: Mounting plugin AppleImageUtils
LogPluginManager: Mounting plugin AppleVision
LogPluginManager: Mounting plugin BackChannel
LogPluginManager: Mounting plugin CharacterAI
LogPluginManager: Mounting plugin GeometryCache
LogPluginManager: Mounting plugin HTML5Networking
LogPluginManager: Mounting plugin ProxyLODPlugin
LogPluginManager: Mounting plugin SkeletalReduction
LogPluginManager: Mounting plugin MagicLeap
LogPluginManager: Mounting plugin MagicLeapMedia
LogPluginManager: Mounting plugin AndroidMedia
LogPluginManager: Mounting plugin AvfMedia
LogPluginManager: Mounting plugin ImgMedia
LogPluginManager: Mounting plugin LinearTimecode
LogPluginManager: Mounting plugin MediaCompositing
LogPluginManager: Mounting plugin MediaPlayerEditor
LogPluginManager: Mounting plugin WebMMedia
LogPluginManager: Mounting plugin WmfMedia
LogPluginManager: Mounting plugin TcpMessaging
LogPluginManager: Mounting plugin UdpMessaging
LogPluginManager: Mounting plugin ActorSequence
LogPluginManager: Mounting plugin LevelSequenceEditor
LogPluginManager: Mounting plugin MatineeToLevelSequence
LogPluginManager: Mounting plugin NetcodeUnitTest
LogPluginManager: Mounting plugin NUTUnrealEngine4
LogPluginManager: Mounting plugin OnlineSubsystemGooglePlay
LogPluginManager: Mounting plugin OnlineSubsystemIOS
LogPluginManager: Mounting plugin OnlineSubsystem
LogPluginManager: Mounting plugin OnlineSubsystemNull
LogPluginManager: Mounting plugin OnlineSubsystemUtils
LogPluginManager: Mounting plugin LauncherChunkInstaller
LogPluginManager: Mounting plugin AndroidDeviceProfileSelector
LogPluginManager: Mounting plugin AndroidMoviePlayer
LogPluginManager: Mounting plugin AndroidPermission
LogPluginManager: Mounting plugin AppleMoviePlayer
LogPluginManager: Mounting plugin ArchVisCharacter
LogPluginManager: Mounting plugin AudioCapture
LogPluginManager: Mounting plugin CableComponent
LogPluginManager: Mounting plugin CustomMeshComponent
LogPluginManager: Mounting plugin EditableMesh
LogPluginManager: Mounting plugin ExampleDeviceProfileSelector
LogPluginManager: Mounting plugin Firebase
LogPluginManager: Mounting plugin GoogleCloudMessaging
LogPluginManager: Mounting plugin IOSDeviceProfileSelector
LogPluginManager: Mounting plugin LinuxDeviceProfileSelector
LogPluginManager: Mounting plugin LocationServicesBPLibrary
LogPluginManager: Mounting plugin MobilePatchingUtils
LogPluginManager: Mounting plugin OculusVR
LogPluginManager: Mounting plugin PhysXVehicles
LogPluginManager: Mounting plugin ProceduralMeshComponent
LogPluginManager: Mounting plugin RuntimePhysXCooking
LogPluginManager: Mounting plugin SignificanceManager
LogPluginManager: Mounting plugin SteamVR
LogPluginManager: Mounting plugin WebMMoviePlayer
LogPluginManager: Mounting plugin WindowsMoviePlayer
LogInit: Using libcurl 7.55.1-DEV
LogInit:  - built for x86_64-pc-win32
LogInit:  - supports SSL with OpenSSL/1.1.1
LogInit:  - supports HTTP deflate (compression) using libz 1.2.8
LogInit:  - other features:
LogInit:      CURL_VERSION_SSL
LogInit:      CURL_VERSION_LIBZ
LogInit:      CURL_VERSION_IPV6
LogInit:      CURL_VERSION_ASYNCHDNS
LogInit:      CURL_VERSION_LARGEFILE
LogInit:      CURL_VERSION_IDN
LogInit:  CurlRequestOptions (configurable via config and command line):
LogInit:  - bVerifyPeer = true  - Libcurl will verify peer certificate
LogInit:  - bUseHttpProxy = false  - Libcurl will NOT use HTTP proxy
LogInit:  - bDontReuseConnections = false  - Libcurl will reuse connections
LogInit:  - MaxHostConnections = 16  - Libcurl will limit the number of connections to a host
LogInit:  - LocalHostAddr = Default
LogInit:  - BufferSize = 65536
LogInit: WinSock: version 1.1 (2.2), MaxSocks=32767, MaxUdp=65467
LogInit: Build: ++UE4+Release-4.22-CL-7053642
LogInit: Engine Version: 4.22.3-7053642+++UE4+Release-4.22
LogInit: Compatible Engine Version: 4.22.0-5660361+++UE4+Release-4.22
LogInit: Net CL: 5660361
LogInit: OS: Windows 10 (Release 1803) (), CPU: Intel(R) Core(TM) i7-7700K CPU @ 4.20GHz, GPU: NVIDIA Quadro M5000
LogInit: Compiled (64-bit): Jun 18 2019 03:09:11
LogInit: Compiled with Visual C++: 19.16.27025.01
LogInit: Build Configuration: Development
LogInit: Branch Name: ++UE4+Release-4.22
LogInit: Command Line: 
LogInit: Base Directory: C:/Program Files/Epic Games/UE_4.22/Engine/Binaries/Win64/
LogInit: Installed Engine Build: 1
LogDevObjectVersion: Number of dev versions registered: 23
LogDevObjectVersion:   Dev-Blueprints (B0D832E4-1F89-4F0D-ACCF-7EB736FD4AA2): 10
LogDevObjectVersion:   Dev-Build (E1C64328-A22C-4D53-A36C-8E866417BD8C): 0
LogDevObjectVersion:   Dev-Core (375EC13C-06E4-48FB-B500-84F0262A717E): 3
LogDevObjectVersion:   Dev-Editor (E4B068ED-F494-42E9-A231-DA0B2E46BB41): 30
LogDevObjectVersion:   Dev-Framework (CFFC743F-43B0-4480-9391-14DF171D2073): 35
LogDevObjectVersion:   Dev-Mobile (B02B49B5-BB20-44E9-A304-32B752E40360): 2
LogDevObjectVersion:   Dev-Networking (A4E4105C-59A1-49B5-A7C5-40C4547EDFEE): 0
LogDevObjectVersion:   Dev-Online (39C831C9-5AE6-47DC-9A44-9C173E1C8E7C): 0
LogDevObjectVersion:   Dev-Physics (78F01B33-EBEA-4F98-B9B4-84EACCB95AA2): 0
LogDevObjectVersion:   Dev-Platform (6631380F-2D4D-43E0-8009-CF276956A95A): 0
LogDevObjectVersion:   Dev-Rendering (12F88B9F-8875-4AFC-A67C-D90C383ABD29): 28
LogDevObjectVersion:   Dev-Sequencer (7B5AE74C-D270-4C10-A958-57980B212A5A): 11
LogDevObjectVersion:   Dev-VR (D7296918-1DD6-4BDD-9DE2-64A83CC13884): 2
LogDevObjectVersion:   Dev-LoadTimes (C2A15278-BFE7-4AFE-6C17-90FF531DF755): 1
LogDevObjectVersion:   Private-Geometry (6EACA3D4-40EC-4CC1-B786-8BED09428FC5): 3
LogDevObjectVersion:   Dev-AnimPhys (29E575DD-E0A3-4627-9D10-D276232CDCEA): 17
LogDevObjectVersion:   Dev-Anim (AF43A65D-7FD3-4947-9873-3E8ED9C1BB05): 2
LogDevObjectVersion:   Dev-ReflectionCapture (6B266CEC-1EC7-4B8F-A30B-E4D90942FC07): 1
LogDevObjectVersion:   Dev-Automation (0DF73D61-A23F-47EA-B727-89E90C41499A): 1
LogDevObjectVersion:   FortniteMain (601D1886-AC64-4F84-AA16-D3DE0DEAC7D6): 25
LogDevObjectVersion:   Dev-Enterprise (9DFFBCD6-494F-0158-E221-12823C92A888): 6
LogDevObjectVersion:   Dev-Niagara (F2AED0AC-9AFE-416F-8664-AA7FFA26D6FC): 1
LogDevObjectVersion:   Dev-Destruction (174F1F0B-B4C6-45A5-B13F-2EE8D0FB917D): 2
LogInit: Presizing for max 16777216 objects, including 0 objects not considered by GC, pre-allocating 0 bytes for permanent pool.
LogInit: Object subsystem initialized
LogConfig: Setting CVar [[con.DebugEarlyDefault:1]]
LogConfig: Setting CVar [[r.setres:1280x720]]
[2019.07.22-21.00.17:572][  0]LogConfig: Setting CVar [[r.VSync:0]]
[2019.07.22-21.00.17:572][  0]LogConfig: Setting CVar [[r.RHICmdBypass:0]]
[2019.07.22-21.00.17:572][  0]LogConfig: Applying CVar settings from Section [/Script/Engine.RendererSettings] File [C:/Users/STESANT1/Desktop/gam113-unreal-project/DMBasic_SSantos/Saved/Config/Windows/Engine.ini]
[2019.07.22-21.00.17:572][  0]LogConfig: Setting CVar [[r.GPUCrashDebugging:0]]
[2019.07.22-21.00.17:572][  0]LogConfig: Applying CVar settings from Section [/Script/Engine.RendererOverrideSettings] File [C:/Users/STESANT1/Desktop/gam113-unreal-project/DMBasic_SSantos/Saved/Config/Windows/Engine.ini]
[2019.07.22-21.00.17:572][  0]LogConfig: Applying CVar settings from Section [/Script/Engine.StreamingSettings] File [C:/Users/STESANT1/Desktop/gam113-unreal-project/DMBasic_SSantos/Saved/Config/Windows/Engine.ini]
[2019.07.22-21.00.17:572][  0]LogConfig: Setting CVar [[s.MinBulkDataSizeForAsyncLoading:131072]]
[2019.07.22-21.00.17:572][  0]LogConfig: Setting CVar [[s.AsyncLoadingThreadEnabled:0]]
[2019.07.22-21.00.17:572][  0]LogConfig: Setting CVar [[s.EventDrivenLoaderEnabled:1]]
[2019.07.22-21.00.17:572][  0]LogConfig: Setting CVar [[s.WarnIfTimeLimitExceeded:0]]
[2019.07.22-21.00.17:572][  0]LogConfig: Setting CVar [[s.TimeLimitExceededMultiplier:1.5]]
[2019.07.22-21.00.17:572][  0]LogConfig: Setting CVar [[s.TimeLimitExceededMinTime:0.005]]
[2019.07.22-21.00.17:572][  0]LogConfig: Setting CVar [[s.UseBackgroundLevelStreaming:1]]
[2019.07.22-21.00.17:572][  0]LogConfig: Setting CVar [[s.PriorityAsyncLoadingExtraTime:15.0]]
[2019.07.22-21.00.17:572][  0]LogConfig: Setting CVar [[s.LevelStreamingActorsUpdateTimeLimit:5.0]]
[2019.07.22-21.00.17:572][  0]LogConfig: Setting CVar [[s.PriorityLevelStreamingActorsUpdateExtraTime:5.0]]
[2019.07.22-21.00.17:572][  0]LogConfig: Setting CVar [[s.LevelStreamingComponentsRegistrationGranularity:10]]
[2019.07.22-21.00.17:572][  0]LogConfig: Setting CVar [[s.UnregisterComponentsTimeLimit:1.0]]
[2019.07.22-21.00.17:572][  0]LogConfig: Setting CVar [[s.LevelStreamingComponentsUnregistrationGranularity:5]]
[2019.07.22-21.00.17:572][  0]LogConfig: Applying CVar settings from Section [/Script/Engine.GarbageCollectionSettings] File [C:/Users/STESANT1/Desktop/gam113-unreal-project/DMBasic_SSantos/Saved/Config/Windows/Engine.ini]
[2019.07.22-21.00.17:572][  0]LogConfig: Setting CVar [[gc.MaxObjectsNotConsideredByGC:1]]
[2019.07.22-21.00.17:572][  0]LogConfig: Setting CVar [[gc.SizeOfPermanentObjectPool:0]]
[2019.07.22-21.00.17:572][  0]LogConfig: Setting CVar [[gc.FlushStreamingOnGC:0]]
[2019.07.22-21.00.17:572][  0]LogConfig: Setting CVar [[gc.NumRetriesBeforeForcingGC:10]]
[2019.07.22-21.00.17:573][  0]LogConfig: Setting CVar [[gc.AllowParallelGC:1]]
[2019.07.22-21.00.17:573][  0]LogConfig: Setting CVar [[gc.TimeBetweenPurgingPendingKillObjects:61.1]]
[2019.07.22-21.00.17:573][  0]LogConfig: Setting CVar [[gc.MaxObjectsInEditor:16777216]]
[2019.07.22-21.00.17:573][  0]LogConfig: Setting CVar [[gc.IncrementalBeginDestroyEnabled:1]]
[2019.07.22-21.00.17:573][  0]LogConfig: Setting CVar [[gc.CreateGCClusters:1]]
[2019.07.22-21.00.17:573][  0]LogConfig: Setting CVar [[gc.MinGCClusterSize:5]]
[2019.07.22-21.00.17:573][  0]LogConfig: Setting CVar [[gc.ActorClusteringEnabled:0]]
[2019.07.22-21.00.17:573][  0]LogConfig: Setting CVar [[gc.BlueprintClusteringEnabled:0]]
[2019.07.22-21.00.17:573][  0]LogConfig: Setting CVar [[gc.UseDisregardForGCOnDedicatedServers:0]]
[2019.07.22-21.00.17:573][  0]LogConfig: Applying CVar settings from Section [/Script/Engine.NetworkSettings] File [C:/Users/STESANT1/Desktop/gam113-unreal-project/DMBasic_SSantos/Saved/Config/Windows/Engine.ini]
[2019.07.22-21.00.17:573][  0]LogConfig: Applying CVar settings from Section [/Script/UnrealEd.CookerSettings] File [C:/Users/STESANT1/Desktop/gam113-unreal-project/DMBasic_SSantos/Saved/Config/Windows/Engine.ini]
[2019.07.22-21.00.17:575][  0]LogConfig: Applying CVar settings from Section [ViewDistanceQuality@3] File [C:/Users/STESANT1/Desktop/gam113-unreal-project/DMBasic_SSantos/Saved/Config/Windows/Scalability.ini]
[2019.07.22-21.00.17:575][  0]LogConfig: Setting CVar [[r.SkeletalMeshLODBias:0]]
[2019.07.22-21.00.17:575][  0]LogConfig: Setting CVar [[r.ViewDistanceScale:1.0]]
[2019.07.22-21.00.17:575][  0]LogConfig: Applying CVar settings from Section [AntiAliasingQuality@3] File [C:/Users/STESANT1/Desktop/gam113-unreal-project/DMBasic_SSantos/Saved/Config/Windows/Scalability.ini]
[2019.07.22-21.00.17:575][  0]LogConfig: Setting CVar [[r.PostProcessAAQuality:4]]
[2019.07.22-21.00.17:575][  0]LogConfig: Applying CVar settings from Section [ShadowQuality@3] File [C:/Users/STESANT1/Desktop/gam113-unreal-project/DMBasic_SSantos/Saved/Config/Windows/Scalability.ini]
[2019.07.22-21.00.17:575][  0]LogConfig: Setting CVar [[r.LightFunctionQuality:1]]
[2019.07.22-21.00.17:575][  0]LogConfig: Setting CVar [[r.ShadowQuality:5]]
[2019.07.22-21.00.17:575][  0]LogConfig: Setting CVar [[r.Shadow.CSM.MaxCascades:10]]
[2019.07.22-21.00.17:575][  0]LogConfig: Setting CVar [[r.Shadow.MaxResolution:2048]]
[2019.07.22-21.00.17:575][  0]LogConfig: Setting CVar [[r.Shadow.MaxCSMResolution:2048]]
[2019.07.22-21.00.17:575][  0]LogConfig: Setting CVar [[r.Shadow.RadiusThreshold:0.01]]
[2019.07.22-21.00.17:575][  0]LogConfig: Setting CVar [[r.Shadow.DistanceScale:1.0]]
[2019.07.22-21.00.17:575][  0]LogConfig: Setting CVar [[r.Shadow.CSM.TransitionScale:1.0]]
[2019.07.22-21.00.17:575][  0]LogConfig: Setting CVar [[r.Shadow.PreShadowResolutionFactor:1.0]]
[2019.07.22-21.00.17:575][  0]LogConfig: Setting CVar [[r.DistanceFieldShadowing:1]]
[2019.07.22-21.00.17:575][  0]LogConfig: Setting CVar [[r.DistanceFieldAO:1]]
[2019.07.22-21.00.17:575][  0]LogConfig: Setting CVar [[r.AOQuality:2]]
[2019.07.22-21.00.17:575][  0]LogConfig: Setting CVar [[r.VolumetricFog:1]]
[2019.07.22-21.00.17:575][  0]LogConfig: Setting CVar [[r.VolumetricFog.GridPixelSize:8]]
[2019.07.22-21.00.17:575][  0]LogConfig: Setting CVar [[r.VolumetricFog.GridSizeZ:128]]
[2019.07.22-21.00.17:575][  0]LogConfig: Setting CVar [[r.VolumetricFog.HistoryMissSupersampleCount:4]]
[2019.07.22-21.00.17:575][  0]LogConfig: Setting CVar [[r.LightMaxDrawDistanceScale:1]]
[2019.07.22-21.00.17:575][  0]LogConfig: Setting CVar [[r.CapsuleShadows:1]]
[2019.07.22-21.00.17:575][  0]LogConfig: Applying CVar settings from Section [PostProcessQuality@3] File [C:/Users/STESANT1/Desktop/gam113-unreal-project/DMBasic_SSantos/Saved/Config/Windows/Scalability.ini]
[2019.07.22-21.00.17:575][  0]LogConfig: Setting CVar [[r.MotionBlurQuality:4]]
[2019.07.22-21.00.17:575][  0]LogConfig: Setting CVar [[r.AmbientOcclusionMipLevelFactor:0.4]]
[2019.07.22-21.00.17:575][  0]LogConfig: Setting CVar [[r.AmbientOcclusionMaxQuality:100]]
[2019.07.22-21.00.17:575][  0]LogConfig: Setting CVar [[r.AmbientOcclusionLevels:-1]]
[2019.07.22-21.00.17:575][  0]LogConfig: Setting CVar [[r.AmbientOcclusionRadiusScale:1.0]]
[2019.07.22-21.00.17:575][  0]LogConfig: Setting CVar [[r.DepthOfFieldQuality:2]]
[2019.07.22-21.00.17:575][  0]LogConfig: Setting CVar [[r.RenderTargetPoolMin:400]]
[2019.07.22-21.00.17:575][  0]LogConfig: Setting CVar [[r.LensFlareQuality:2]]
[2019.07.22-21.00.17:575][  0]LogConfig: Setting CVar [[r.SceneColorFringeQuality:1]]
[2019.07.22-21.00.17:575][  0]LogConfig: Setting CVar [[r.EyeAdaptationQuality:2]]
[2019.07.22-21.00.17:575][  0]LogConfig: Setting CVar [[r.BloomQuality:5]]
[2019.07.22-21.00.17:575][  0]LogConfig: Setting CVar [[r.FastBlurThreshold:100]]
[2019.07.22-21.00.17:575][  0]LogConfig: Setting CVar [[r.Upscale.Quality:3]]
[2019.07.22-21.00.17:575][  0]LogConfig: Setting CVar [[r.Tonemapper.GrainQuantization:1]]
[2019.07.22-21.00.17:575][  0]LogConfig: Setting CVar [[r.LightShaftQuality:1]]
[2019.07.22-21.00.17:575][  0]LogConfig: Setting CVar [[r.Filter.SizeScale:1]]
[2019.07.22-21.00.17:575][  0]LogConfig: Setting CVar [[r.Tonemapper.Quality:5]]
[2019.07.22-21.00.17:575][  0]LogConfig: Setting CVar [[r.DOF.Gather.AccumulatorQuality:1        ; higher gathering accumulator quality]]
[2019.07.22-21.00.17:575][  0]LogConfig: Setting CVar [[r.DOF.Gather.PostfilterMethod:1          ; Median3x3 postfilering method]]
[2019.07.22-21.00.17:575][  0]LogConfig: Setting CVar [[r.DOF.Gather.EnableBokehSettings:0       ; no bokeh simulation when gathering]]
[2019.07.22-21.00.17:575][  0]LogConfig: Setting CVar [[r.DOF.Gather.RingCount:4                 ; medium number of samples when gathering]]
[2019.07.22-21.00.17:575][  0]LogConfig: Setting CVar [[r.DOF.Scatter.ForegroundCompositing:1    ; additive foreground scattering]]
[2019.07.22-21.00.17:575][  0]LogConfig: Setting CVar [[r.DOF.Scatter.BackgroundCompositing:2    ; additive background scattering]]
[2019.07.22-21.00.17:575][  0]LogConfig: Setting CVar [[r.DOF.Scatter.EnableBokehSettings:1      ; bokeh simulation when scattering]]
[2019.07.22-21.00.17:575][  0]LogConfig: Setting CVar [[r.DOF.Scatter.MaxSpriteRatio:0.1         ; only a maximum of 10% of scattered bokeh]]
[2019.07.22-21.00.17:575][  0]LogConfig: Setting CVar [[r.DOF.Recombine.Quality:1                ; cheap slight out of focus]]
[2019.07.22-21.00.17:575][  0]LogConfig: Setting CVar [[r.DOF.Recombine.EnableBokehSettings:0    ; no bokeh simulation on slight out of focus]]
[2019.07.22-21.00.17:575][  0]LogConfig: Setting CVar [[r.DOF.TemporalAAQuality:1                ; more stable temporal accumulation]]
[2019.07.22-21.00.17:575][  0]LogConfig: Setting CVar [[r.DOF.Kernel.MaxForegroundRadius:0.025]]
[2019.07.22-21.00.17:575][  0]LogConfig: Setting CVar [[r.DOF.Kernel.MaxBackgroundRadius:0.025]]
[2019.07.22-21.00.17:575][  0]LogConfig: Applying CVar settings from Section [TextureQuality@3] File [C:/Users/STESANT1/Desktop/gam113-unreal-project/DMBasic_SSantos/Saved/Config/Windows/Scalability.ini]
[2019.07.22-21.00.17:575][  0]LogConfig: Setting CVar [[r.Streaming.MipBias:0]]
[2019.07.22-21.00.17:575][  0]LogConfig: Setting CVar [[r.Streaming.AmortizeCPUToGPUCopy:0]]
[2019.07.22-21.00.17:575][  0]LogConfig: Setting CVar [[r.Streaming.MaxNumTexturesToStreamPerFrame:0]]
[2019.07.22-21.00.17:575][  0]LogConfig: Setting CVar [[r.Streaming.Boost:1]]
[2019.07.22-21.00.17:575][  0]LogConfig: Setting CVar [[r.MaxAnisotropy:8]]
[2019.07.22-21.00.17:575][  0]LogConfig: Setting CVar [[r.Streaming.LimitPoolSizeToVRAM:0]]
[2019.07.22-21.00.17:575][  0]LogConfig: Setting CVar [[r.Streaming.PoolSize:1000]]
[2019.07.22-21.00.17:575][  0]LogConfig: Setting CVar [[r.Streaming.MaxEffectiveScreenSize:0]]
[2019.07.22-21.00.17:575][  0]LogConfig: Applying CVar settings from Section [EffectsQuality@3] File [C:/Users/STESANT1/Desktop/gam113-unreal-project/DMBasic_SSantos/Saved/Config/Windows/Scalability.ini]
[2019.07.22-21.00.17:575][  0]LogConfig: Setting CVar [[r.TranslucencyLightingVolumeDim:64]]
[2019.07.22-21.00.17:575][  0]LogConfig: Setting CVar [[r.RefractionQuality:2]]
[2019.07.22-21.00.17:575][  0]LogConfig: Setting CVar [[r.SSR.Quality:3]]
[2019.07.22-21.00.17:575][  0]LogConfig: Setting CVar [[r.SceneColorFormat:4]]
[2019.07.22-21.00.17:575][  0]LogConfig: Setting CVar [[r.DetailMode:2]]
[2019.07.22-21.00.17:575][  0]LogConfig: Setting CVar [[r.TranslucencyVolumeBlur:1]]
[2019.07.22-21.00.17:575][  0]LogConfig: Setting CVar [[r.MaterialQualityLevel:1 ; High quality]]
[2019.07.22-21.00.17:575][  0]LogConfig: Setting CVar [[r.SSS.Scale:1]]
[2019.07.22-21.00.17:575][  0]LogConfig: Setting CVar [[r.SSS.SampleSet:2]]
[2019.07.22-21.00.17:575][  0]LogConfig: Setting CVar [[r.SSS.Quality:1]]
[2019.07.22-21.00.17:575][  0]LogConfig: Setting CVar [[r.SSS.HalfRes:1]]
[2019.07.22-21.00.17:575][  0]LogConfig: Setting CVar [[r.EmitterSpawnRateScale:1.0]]
[2019.07.22-21.00.17:575][  0]LogConfig: Setting CVar [[r.ParticleLightQuality:2]]
[2019.07.22-21.00.17:576][  0]LogConfig: Applying CVar settings from Section [FoliageQuality@3] File [C:/Users/STESANT1/Desktop/gam113-unreal-project/DMBasic_SSantos/Saved/Config/Windows/Scalability.ini]
[2019.07.22-21.00.17:576][  0]LogConfig: Setting CVar [[foliage.DensityScale:1.0]]
[2019.07.22-21.00.17:576][  0]LogConfig: Setting CVar [[grass.DensityScale:1.0]]
[2019.07.22-21.00.17:576][  0]LogInit: Selected Device Profile: [Windows]
[2019.07.22-21.00.17:576][  0]LogInit: Applying CVar settings loaded from the selected device profile: [Windows]
[2019.07.22-21.00.17:586][  0]LogHAL: Display: Platform has ~ 16 GB [17096552448 / 17179869184 / 16], which maps to Larger [LargestMinGB=32, LargerMinGB=12, DefaultMinGB=8, SmallerMinGB=6, SmallestMinGB=0)
[2019.07.22-21.00.17:586][  0]LogConfig: Setting CVar [[r.Vulkan.UseRealUBs:0		; Required until we fix HLR fall-out]]
[2019.07.22-21.00.17:586][  0]LogInit: Going up to parent DeviceProfile []
[2019.07.22-21.00.17:586][  0]LogConfig: Applying CVar settings from Section [ViewDistanceQuality@3] File [C:/Users/STESANT1/Desktop/gam113-unreal-project/DMBasic_SSantos/Saved/Config/Windows/Scalability.ini]
[2019.07.22-21.00.17:586][  0]LogConfig: Setting CVar [[r.SkeletalMeshLODBias:0]]
[2019.07.22-21.00.17:586][  0]LogConfig: Setting CVar [[r.ViewDistanceScale:1.0]]
[2019.07.22-21.00.17:586][  0]LogConfig: Applying CVar settings from Section [AntiAliasingQuality@3] File [C:/Users/STESANT1/Desktop/gam113-unreal-project/DMBasic_SSantos/Saved/Config/Windows/Scalability.ini]
[2019.07.22-21.00.17:586][  0]LogConfig: Setting CVar [[r.PostProcessAAQuality:4]]
[2019.07.22-21.00.17:586][  0]LogConfig: Applying CVar settings from Section [ShadowQuality@3] File [C:/Users/STESANT1/Desktop/gam113-unreal-project/DMBasic_SSantos/Saved/Config/Windows/Scalability.ini]
[2019.07.22-21.00.17:586][  0]LogConfig: Setting CVar [[r.LightFunctionQuality:1]]
[2019.07.22-21.00.17:586][  0]LogConfig: Setting CVar [[r.ShadowQuality:5]]
[2019.07.22-21.00.17:586][  0]LogConfig: Setting CVar [[r.Shadow.CSM.MaxCascades:10]]
[2019.07.22-21.00.17:586][  0]LogConfig: Setting CVar [[r.Shadow.MaxResolution:2048]]
[2019.07.22-21.00.17:586][  0]LogConfig: Setting CVar [[r.Shadow.MaxCSMResolution:2048]]
[2019.07.22-21.00.17:586][  0]LogConfig: Setting CVar [[r.Shadow.RadiusThreshold:0.01]]
[2019.07.22-21.00.17:586][  0]LogConfig: Setting CVar [[r.Shadow.DistanceScale:1.0]]
[2019.07.22-21.00.17:586][  0]LogConfig: Setting CVar [[r.Shadow.CSM.TransitionScale:1.0]]
[2019.07.22-21.00.17:586][  0]LogConfig: Setting CVar [[r.Shadow.PreShadowResolutionFactor:1.0]]
[2019.07.22-21.00.17:586][  0]LogConfig: Setting CVar [[r.DistanceFieldShadowing:1]]
[2019.07.22-21.00.17:586][  0]LogConfig: Setting CVar [[r.DistanceFieldAO:1]]
[2019.07.22-21.00.17:586][  0]LogConfig: Setting CVar [[r.AOQuality:2]]
[2019.07.22-21.00.17:586][  0]LogConfig: Setting CVar [[r.VolumetricFog:1]]
[2019.07.22-21.00.17:586][  0]LogConfig: Setting CVar [[r.VolumetricFog.GridPixelSize:8]]
[2019.07.22-21.00.17:586][  0]LogConfig: Setting CVar [[r.VolumetricFog.GridSizeZ:128]]
[2019.07.22-21.00.17:586][  0]LogConfig: Setting CVar [[r.VolumetricFog.HistoryMissSupersampleCount:4]]
[2019.07.22-21.00.17:586][  0]LogConfig: Setting CVar [[r.LightMaxDrawDistanceScale:1]]
[2019.07.22-21.00.17:586][  0]LogConfig: Setting CVar [[r.CapsuleShadows:1]]
[2019.07.22-21.00.17:586][  0]LogConfig: Applying CVar settings from Section [PostProcessQuality@3] File [C:/Users/STESANT1/Desktop/gam113-unreal-project/DMBasic_SSantos/Saved/Config/Windows/Scalability.ini]
[2019.07.22-21.00.17:586][  0]LogConfig: Setting CVar [[r.MotionBlurQuality:4]]
[2019.07.22-21.00.17:586][  0]LogConfig: Setting CVar [[r.AmbientOcclusionMipLevelFactor:0.4]]
[2019.07.22-21.00.17:587][  0]LogConfig: Setting CVar [[r.AmbientOcclusionMaxQuality:100]]
[2019.07.22-21.00.17:587][  0]LogConfig: Setting CVar [[r.AmbientOcclusionLevels:-1]]
[2019.07.22-21.00.17:587][  0]LogConfig: Setting CVar [[r.AmbientOcclusionRadiusScale:1.0]]
[2019.07.22-21.00.17:587][  0]LogConfig: Setting CVar [[r.DepthOfFieldQuality:2]]
[2019.07.22-21.00.17:587][  0]LogConfig: Setting CVar [[r.RenderTargetPoolMin:400]]
[2019.07.22-21.00.17:587][  0]LogConfig: Setting CVar [[r.LensFlareQuality:2]]
[2019.07.22-21.00.17:587][  0]LogConfig: Setting CVar [[r.SceneColorFringeQuality:1]]
[2019.07.22-21.00.17:587][  0]LogConfig: Setting CVar [[r.EyeAdaptationQuality:2]]
[2019.07.22-21.00.17:587][  0]LogConfig: Setting CVar [[r.BloomQuality:5]]
[2019.07.22-21.00.17:587][  0]LogConfig: Setting CVar [[r.FastBlurThreshold:100]]
[2019.07.22-21.00.17:587][  0]LogConfig: Setting CVar [[r.Upscale.Quality:3]]
[2019.07.22-21.00.17:587][  0]LogConfig: Setting CVar [[r.Tonemapper.GrainQuantization:1]]
[2019.07.22-21.00.17:587][  0]LogConfig: Setting CVar [[r.LightShaftQuality:1]]
[2019.07.22-21.00.17:587][  0]LogConfig: Setting CVar [[r.Filter.SizeScale:1]]
[2019.07.22-21.00.17:587][  0]LogConfig: Setting CVar [[r.Tonemapper.Quality:5]]
[2019.07.22-21.00.17:587][  0]LogConfig: Setting CVar [[r.DOF.Gather.AccumulatorQuality:1        ; higher gathering accumulator quality]]
[2019.07.22-21.00.17:587][  0]LogConfig: Setting CVar [[r.DOF.Gather.PostfilterMethod:1          ; Median3x3 postfilering method]]
[2019.07.22-21.00.17:587][  0]LogConfig: Setting CVar [[r.DOF.Gather.EnableBokehSettings:0       ; no bokeh simulation when gathering]]
[2019.07.22-21.00.17:587][  0]LogConfig: Setting CVar [[r.DOF.Gather.RingCount:4                 ; medium number of samples when gathering]]
[2019.07.22-21.00.17:587][  0]LogConfig: Setting CVar [[r.DOF.Scatter.ForegroundCompositing:1    ; additive foreground scattering]]
[2019.07.22-21.00.17:587][  0]LogConfig: Setting CVar [[r.DOF.Scatter.BackgroundCompositing:2    ; additive background scattering]]
[2019.07.22-21.00.17:587][  0]LogConfig: Setting CVar [[r.DOF.Scatter.EnableBokehSettings:1      ; bokeh simulation when scattering]]
[2019.07.22-21.00.17:587][  0]LogConfig: Setting CVar [[r.DOF.Scatter.MaxSpriteRatio:0.1         ; only a maximum of 10% of scattered bokeh]]
[2019.07.22-21.00.17:587][  0]LogConfig: Setting CVar [[r.DOF.Recombine.Quality:1                ; cheap slight out of focus]]
[2019.07.22-21.00.17:587][  0]LogConfig: Setting CVar [[r.DOF.Recombine.EnableBokehSettings:0    ; no bokeh simulation on slight out of focus]]
[2019.07.22-21.00.17:587][  0]LogConfig: Setting CVar [[r.DOF.TemporalAAQuality:1                ; more stable temporal accumulation]]
[2019.07.22-21.00.17:587][  0]LogConfig: Setting CVar [[r.DOF.Kernel.MaxForegroundRadius:0.025]]
[2019.07.22-21.00.17:587][  0]LogConfig: Setting CVar [[r.DOF.Kernel.MaxBackgroundRadius:0.025]]
[2019.07.22-21.00.17:587][  0]LogConfig: Applying CVar settings from Section [TextureQuality@3] File [C:/Users/STESANT1/Desktop/gam113-unreal-project/DMBasic_SSantos/Saved/Config/Windows/Scalability.ini]
[2019.07.22-21.00.17:587][  0]LogConfig: Setting CVar [[r.Streaming.MipBias:0]]
[2019.07.22-21.00.17:587][  0]LogConfig: Setting CVar [[r.Streaming.AmortizeCPUToGPUCopy:0]]
[2019.07.22-21.00.17:587][  0]LogConfig: Setting CVar [[r.Streaming.MaxNumTexturesToStreamPerFrame:0]]
[2019.07.22-21.00.17:587][  0]LogConfig: Setting CVar [[r.Streaming.Boost:1]]
[2019.07.22-21.00.17:587][  0]LogConfig: Setting CVar [[r.MaxAnisotropy:8]]
[2019.07.22-21.00.17:587][  0]LogConfig: Setting CVar [[r.Streaming.LimitPoolSizeToVRAM:0]]
[2019.07.22-21.00.17:587][  0]LogConfig: Setting CVar [[r.Streaming.PoolSize:1000]]
[2019.07.22-21.00.17:587][  0]LogConfig: Setting CVar [[r.Streaming.MaxEffectiveScreenSize:0]]
[2019.07.22-21.00.17:587][  0]LogConfig: Applying CVar settings from Section [EffectsQuality@3] File [C:/Users/STESANT1/Desktop/gam113-unreal-project/DMBasic_SSantos/Saved/Config/Windows/Scalability.ini]
[2019.07.22-21.00.17:587][  0]LogConfig: Setting CVar [[r.TranslucencyLightingVolumeDim:64]]
[2019.07.22-21.00.17:587][  0]LogConfig: Setting CVar [[r.RefractionQuality:2]]
[2019.07.22-21.00.17:587][  0]LogConfig: Setting CVar [[r.SSR.Quality:3]]
[2019.07.22-21.00.17:587][  0]LogConfig: Setting CVar [[r.SceneColorFormat:4]]
[2019.07.22-21.00.17:587][  0]LogConfig: Setting CVar [[r.DetailMode:2]]
[2019.07.22-21.00.17:587][  0]LogConfig: Setting CVar [[r.TranslucencyVolumeBlur:1]]
[2019.07.22-21.00.17:587][  0]LogConfig: Setting CVar [[r.MaterialQualityLevel:1 ; High quality]]
[2019.07.22-21.00.17:587][  0]LogConfig: Setting CVar [[r.SSS.Scale:1]]
[2019.07.22-21.00.17:587][  0]LogConfig: Setting CVar [[r.SSS.SampleSet:2]]
[2019.07.22-21.00.17:587][  0]LogConfig: Setting CVar [[r.SSS.Quality:1]]
[2019.07.22-21.00.17:587][  0]LogConfig: Setting CVar [[r.SSS.HalfRes:1]]
[2019.07.22-21.00.17:587][  0]LogConfig: Setting CVar [[r.EmitterSpawnRateScale:1.0]]
[2019.07.22-21.00.17:587][  0]LogConfig: Setting CVar [[r.ParticleLightQuality:2]]
[2019.07.22-21.00.17:587][  0]LogConfig: Applying CVar settings from Section [FoliageQuality@3] File [C:/Users/STESANT1/Desktop/gam113-unreal-project/DMBasic_SSantos/Saved/Config/Windows/Scalability.ini]
[2019.07.22-21.00.17:587][  0]LogConfig: Setting CVar [[foliage.DensityScale:1.0]]
[2019.07.22-21.00.17:587][  0]LogConfig: Setting CVar [[grass.DensityScale:1.0]]
[2019.07.22-21.00.17:587][  0]LogConfig: Applying CVar settings from Section [Startup] File [../../../Engine/Config/ConsoleVariables.ini]
[2019.07.22-21.00.17:587][  0]LogConfig: Setting CVar [[net.UseAdaptiveNetUpdateFrequency:0]]
[2019.07.22-21.00.17:587][  0]LogConfig: Setting CVar [[p.chaos.AllowCreatePhysxBodies:1]]
[2019.07.22-21.00.17:587][  0]LogConfig: Applying CVar settings from Section [ConsoleVariables] File [C:/Users/STESANT1/Desktop/gam113-unreal-project/DMBasic_SSantos/Saved/Config/Windows/Engine.ini]
[2019.07.22-21.00.17:587][  0]LogInit: Computer: WEIRDING27
[2019.07.22-21.00.17:587][  0]LogInit: User: STESANT1
[2019.07.22-21.00.17:587][  0]LogInit: CPU Page size=4096, Cores=4
[2019.07.22-21.00.17:587][  0]LogInit: High frequency timer resolution =4.101560 MHz
[2019.07.22-21.00.17:587][  0]LogMemory: Memory total: Physical=15.9GB (16GB approx)
[2019.07.22-21.00.17:587][  0]LogMemory: Platform Memory Stats for Windows
[2019.07.22-21.00.17:587][  0]LogMemory: Process Physical Memory: 95.93 MB used, 95.93 MB peak
[2019.07.22-21.00.17:587][  0]LogMemory: Process Virtual Memory: 90.45 MB used, 90.45 MB peak
[2019.07.22-21.00.17:587][  0]LogMemory: Physical Memory: 6083.98 MB used,  10220.57 MB free, 16304.54 MB total
[2019.07.22-21.00.17:587][  0]LogMemory: Virtual Memory: 4655.82 MB used,  134213072.00 MB free, 134217728.00 MB total
[2019.07.22-21.00.17:600][  0]LogInit: Using OS detected language (en-US).
[2019.07.22-21.00.17:600][  0]LogInit: Using OS detected locale (en-US).
[2019.07.22-21.00.17:600][  0]LogTextLocalizationManager: No specific localization for 'en-US' exists, so the 'en' localization will be used.
[2019.07.22-21.00.17:713][  0]LogInit: Setting process to per monitor DPI aware
[2019.07.22-21.00.17:740][  0]LogSlate: New Slate User Created.  User Index 0, Is Virtual User: 0
[2019.07.22-21.00.17:740][  0]LogSlate: Slate User Registered.  User Index 0, Is Virtual User: 0
[2019.07.22-21.00.17:857][  0]LogHMD: Failed to initialize OpenVR with code 110
[2019.07.22-21.00.17:857][  0]LogD3D11RHI: D3D11 adapters:
[2019.07.22-21.00.17:892][  0]LogD3D11RHI:    0. 'NVIDIA Quadro M5000' (Feature Level 11_0)
[2019.07.22-21.00.17:892][  0]LogD3D11RHI:       8144/0/8152 MB DedicatedVideo/DedicatedSystem/SharedSystem, Outputs:1, VendorId:0x10de
[2019.07.22-21.00.17:893][  0]LogD3D11RHI:    1. 'Microsoft Basic Render Driver' (Feature Level 11_0)
[2019.07.22-21.00.17:893][  0]LogD3D11RHI:       0/0/8152 MB DedicatedVideo/DedicatedSystem/SharedSystem, Outputs:0, VendorId:0x1414
[2019.07.22-21.00.17:893][  0]LogD3D11RHI: Chosen D3D11 Adapter: 0
[2019.07.22-21.00.17:899][  0]LogD3D11RHI: Creating new Direct3DDevice
[2019.07.22-21.00.17:899][  0]LogD3D11RHI:     GPU DeviceId: 0x13f0 (for the marketing name, search the web for "GPU Device Id")
[2019.07.22-21.00.17:899][  0]LogWindows: EnumDisplayDevices:
[2019.07.22-21.00.17:899][  0]LogWindows:    0. 'NVIDIA Quadro M5000' (P:1 D:1)
[2019.07.22-21.00.17:899][  0]LogWindows:    1. 'NVIDIA Quadro M5000' (P:0 D:0)
[2019.07.22-21.00.17:899][  0]LogWindows:    2. 'NVIDIA Quadro M5000' (P:0 D:0)
[2019.07.22-21.00.17:899][  0]LogWindows:    3. 'NVIDIA Quadro M5000' (P:0 D:0)
[2019.07.22-21.00.17:899][  0]LogWindows: DebugString: FoundDriverCount:4 
[2019.07.22-21.00.17:899][  0]LogD3D11RHI:     Adapter Name: NVIDIA Quadro M5000
[2019.07.22-21.00.17:899][  0]LogD3D11RHI:   Driver Version: 391.89 (internal:23.21.13.9189, unified:391.89)
[2019.07.22-21.00.17:899][  0]LogD3D11RHI:      Driver Date: 7-19-2018
[2019.07.22-21.00.17:899][  0]LogRHI: Texture pool is 5701 MB (70% of 8144 MB)
[2019.07.22-21.00.17:922][  0]LogD3D11RHI: Async texture creation enabled
[2019.07.22-21.00.17:924][  0]LogRendererCore: FGlobalReadBuffer::InitRHI
[2019.07.22-21.00.17:924][  0]LogRendererCore: FGlobalReadBuffer::InitRHI
[2019.07.22-21.00.17:924][  0]LogRendererCore: FGlobalReadBuffer::InitRHI
[2019.07.22-21.00.17:937][  0]LogD3D11RHI: GPU Timing Frequency: 1000.000000 (Debug: 2 2)
[2019.07.22-21.00.18:135][  0]LogTemp: Display: Module 'AllDesktopTargetPlatform' loaded TargetPlatform 'AllDesktop'
[2019.07.22-21.00.18:146][  0]LogTemp: Display: Module 'MacClientTargetPlatform' loaded TargetPlatform 'MacClient'
[2019.07.22-21.00.18:160][  0]LogTemp: Display: Module 'MacNoEditorTargetPlatform' loaded TargetPlatform 'MacNoEditor'
[2019.07.22-21.00.18:171][  0]LogTemp: Display: Module 'MacServerTargetPlatform' loaded TargetPlatform 'MacServer'
[2019.07.22-21.00.18:183][  0]LogTemp: Display: Module 'MacTargetPlatform' loaded TargetPlatform 'Mac'
[2019.07.22-21.00.18:193][  0]LogTemp: Display: Module 'WindowsClientTargetPlatform' loaded TargetPlatform 'WindowsClient'
[2019.07.22-21.00.18:203][  0]LogTemp: Display: Module 'WindowsNoEditorTargetPlatform' loaded TargetPlatform 'WindowsNoEditor'
[2019.07.22-21.00.18:213][  0]LogTemp: Display: Module 'WindowsServerTargetPlatform' loaded TargetPlatform 'WindowsServer'
[2019.07.22-21.00.18:218][  0]LogTemp: Display: Module 'WindowsTargetPlatform' loaded TargetPlatform 'Windows'
[2019.07.22-21.00.18:294][  0]LogTemp: Display: Module 'AndroidTargetPlatform' loaded TargetPlatform 'Android'
[2019.07.22-21.00.18:294][  0]LogTemp: Display: Module 'AndroidTargetPlatform' loaded TargetPlatform 'Android_ASTC'
[2019.07.22-21.00.18:294][  0]LogTemp: Display: Module 'AndroidTargetPlatform' loaded TargetPlatform 'Android_ATC'
[2019.07.22-21.00.18:294][  0]LogTemp: Display: Module 'AndroidTargetPlatform' loaded TargetPlatform 'Android_DXT'
[2019.07.22-21.00.18:294][  0]LogTemp: Display: Module 'AndroidTargetPlatform' loaded TargetPlatform 'Android_ETC1'
[2019.07.22-21.00.18:294][  0]LogTemp: Display: Module 'AndroidTargetPlatform' loaded TargetPlatform 'Android_ETC1a'
[2019.07.22-21.00.18:294][  0]LogTemp: Display: Module 'AndroidTargetPlatform' loaded TargetPlatform 'Android_ETC2'
[2019.07.22-21.00.18:294][  0]LogTemp: Display: Module 'AndroidTargetPlatform' loaded TargetPlatform 'Android_PVRTC'
[2019.07.22-21.00.18:294][  0]LogTemp: Display: Module 'AndroidTargetPlatform' loaded TargetPlatform 'AndroidClient'
[2019.07.22-21.00.18:294][  0]LogTemp: Display: Module 'AndroidTargetPlatform' loaded TargetPlatform 'Android_ASTCClient'
[2019.07.22-21.00.18:294][  0]LogTemp: Display: Module 'AndroidTargetPlatform' loaded TargetPlatform 'Android_ATCClient'
[2019.07.22-21.00.18:294][  0]LogTemp: Display: Module 'AndroidTargetPlatform' loaded TargetPlatform 'Android_DXTClient'
[2019.07.22-21.00.18:294][  0]LogTemp: Display: Module 'AndroidTargetPlatform' loaded TargetPlatform 'Android_ETC1Client'
[2019.07.22-21.00.18:294][  0]LogTemp: Display: Module 'AndroidTargetPlatform' loaded TargetPlatform 'Android_ETC1aClient'
[2019.07.22-21.00.18:294][  0]LogTemp: Display: Module 'AndroidTargetPlatform' loaded TargetPlatform 'Android_ETC2Client'
[2019.07.22-21.00.18:294][  0]LogTemp: Display: Module 'AndroidTargetPlatform' loaded TargetPlatform 'Android_PVRTCClient'
[2019.07.22-21.00.18:294][  0]LogTemp: Display: Module 'AndroidTargetPlatform' loaded TargetPlatform 'Android_Multi'
[2019.07.22-21.00.18:294][  0]LogTemp: Display: Module 'AndroidTargetPlatform' loaded TargetPlatform 'Android_MultiClient'
[2019.07.22-21.00.18:295][  0]LogTemp: Display: Module 'HTML5TargetPlatform' loaded TargetPlatform 'HTML5'
[2019.07.22-21.00.18:339][  0]LogTemp: Display: Module 'IOSTargetPlatform' loaded TargetPlatform 'IOSClient'
[2019.07.22-21.00.18:339][  0]LogTemp: Display: Module 'IOSTargetPlatform' loaded TargetPlatform 'IOS'
[2019.07.22-21.00.18:358][  0]LogTemp: Display: Module 'TVOSTargetPlatform' loaded TargetPlatform 'TVOSClient'
[2019.07.22-21.00.18:358][  0]LogTemp: Display: Module 'TVOSTargetPlatform' loaded TargetPlatform 'TVOS'
[2019.07.22-21.00.18:368][  0]LogTemp: Display: Module 'LinuxClientTargetPlatform' loaded TargetPlatform 'LinuxClient'
[2019.07.22-21.00.18:377][  0]LogTemp: Display: Module 'LinuxNoEditorTargetPlatform' loaded TargetPlatform 'LinuxNoEditor'
[2019.07.22-21.00.18:385][  0]LogTemp: Display: Module 'LinuxServerTargetPlatform' loaded TargetPlatform 'LinuxServer'
[2019.07.22-21.00.18:395][  0]LogTemp: Display: Module 'LinuxTargetPlatform' loaded TargetPlatform 'Linux'
[2019.07.22-21.00.18:432][  0]LogTemp: Display: Module 'LuminTargetPlatform' loaded TargetPlatform 'Lumin'
[2019.07.22-21.00.18:432][  0]LogTemp: Display: Module 'LuminTargetPlatform' loaded TargetPlatform 'LuminClient'
[2019.07.22-21.00.18:432][  0]LogTargetPlatformManager: Display: Building Assets For Windows
[2019.07.22-21.00.18:438][  0]LogAudioDebug: Display: Lib vorbis DLL was dynamically loaded.
[2019.07.22-21.00.18:471][  0]LogShaderCompilers: Guid format shader working directory is -29 characters bigger than the processId version (../../../../../../Users/STESANT1/Desktop/gam113-unreal-project/DMBasic_SSantos/Intermediate/Shaders/WorkingDirectory/6784/).
[2019.07.22-21.00.18:471][  0]LogShaderCompilers: Cleaned the shader compiler working directory 'C:/Users/STESANT1/AppData/Local/Temp/UnrealShaderWorkingDir/23C6C72D414D47DD7E925E9D51EEDDA1/'.
[2019.07.22-21.00.18:472][  0]LogXGEController: Cleaning working directory: C:/Users/STESANT1/AppData/Local/Temp/UnrealXGEWorkingDir/
[2019.07.22-21.00.18:473][  0]LogXGEController: Cannot use XGE Controller as Incredibuild is not installed on this machine.
[2019.07.22-21.00.18:473][  0]LogShaderCompilers: Cannot use XGE Shader Compiler as Incredibuild is not installed on this machine.
[2019.07.22-21.00.18:473][  0]LogShaderCompilers: Display: Using Local Shader Compiler.
[2019.07.22-21.00.18:885][  0]LogDerivedDataCache: Display: Max Cache Size: 512 MB
[2019.07.22-21.00.18:923][  0]LogDerivedDataCache: Loaded boot cache 0.04s 71MB C:/Users/STESANT1/AppData/Local/UnrealEngine/4.22/DerivedDataCache/Boot.ddc.
[2019.07.22-21.00.18:923][  0]LogDerivedDataCache: Display: Loaded Boot cache: C:/Users/STESANT1/AppData/Local/UnrealEngine/4.22/DerivedDataCache/Boot.ddc
[2019.07.22-21.00.18:923][  0]LogDerivedDataCache: FDerivedDataBackendGraph:  Pak pak cache file ../../../../../../Users/STESANT1/Desktop/gam113-unreal-project/DMBasic_SSantos/DerivedDataCache/DDC.ddp not found, will not use a pak cache.
[2019.07.22-21.00.18:923][  0]LogDerivedDataCache: Unable to find inner node Pak for hierarchical cache Hierarchy.
[2019.07.22-21.00.18:923][  0]LogDerivedDataCache: FDerivedDataBackendGraph:  CompressedPak pak cache file ../../../../../../Users/STESANT1/Desktop/gam113-unreal-project/DMBasic_SSantos/DerivedDataCache/Compressed.ddp not found, will not use a pak cache.
[2019.07.22-21.00.18:923][  0]LogDerivedDataCache: Unable to find inner node CompressedPak for hierarchical cache Hierarchy.
[2019.07.22-21.00.18:934][  0]LogDerivedDataCache: Display: Pak cache opened for reading ../../../Engine/DerivedDataCache/Compressed.ddp.
[2019.07.22-21.00.18:934][  0]LogDerivedDataCache: FDerivedDataBackendGraph:  EnterprisePak pak cache file ../../../Enterprise/DerivedDataCache/Compressed.ddp not found, will not use a pak cache.
[2019.07.22-21.00.18:934][  0]LogDerivedDataCache: Unable to find inner node EnterprisePak for hierarchical cache Hierarchy.
[2019.07.22-21.00.18:946][  0]LogDerivedDataCache: Using Local data cache path C:/Users/STESANT1/AppData/Local/UnrealEngine/Common/DerivedDataCache: Writable
[2019.07.22-21.00.18:946][  0]LogDerivedDataCache: Shared data cache path not found in *engine.ini, will not use an Shared cache.
[2019.07.22-21.00.18:946][  0]LogDerivedDataCache: Unable to find inner node Shared for hierarchical cache Hierarchy.
[2019.07.22-21.00.18:963][  0]LogMaterial: Verifying Global Shaders for PCD3D_SM5
[2019.07.22-21.00.18:964][  0]LogSlate: Using FreeType 2.6.0
[2019.07.22-21.00.18:965][  0]LogSlate: SlateFontServices - WITH_FREETYPE: 1, WITH_HARFBUZZ: 1
[2019.07.22-21.00.19:031][  0]LogAssetRegistry: FAssetRegistry took 0.0308 seconds to start up
[2019.07.22-21.00.19:269][  0]LogInit: Selected Device Profile: [Windows]
[2019.07.22-21.00.19:386][  0]LogMeshReduction: Using QuadricMeshReduction for automatic static mesh reduction
[2019.07.22-21.00.19:386][  0]LogMeshReduction: Using SimplygonMeshReduction for automatic skeletal mesh reduction
[2019.07.22-21.00.19:386][  0]LogMeshReduction: Using ProxyLODMeshReduction for automatic mesh merging
[2019.07.22-21.00.19:386][  0]LogMeshReduction: No distributed automatic mesh merging module available
[2019.07.22-21.00.19:386][  0]LogMeshMerging: No distributed automatic mesh merging module available
[2019.07.22-21.00.19:394][  0]LogNetVersion: DMBasic_SSantos 1.0.0, NetCL: 5660361, EngineNetVer: 10, GameNetVer: 0 (Checksum: 361949733)
[2019.07.22-21.00.19:717][  0]LogPackageLocalizationCache: Processed 10 localized package path(s) for 1 prioritized culture(s) in 0.050614 seconds
[2019.07.22-21.00.19:725][  0]LogUObjectArray: 42205 objects as part of root set at end of initial load.
[2019.07.22-21.00.19:725][  0]LogUObjectAllocator: 7325032 out of 0 bytes used by permanent object pool.
[2019.07.22-21.00.19:725][  0]LogUObjectArray: CloseDisregardForGC: 0/0 objects in disregard for GC pool
[2019.07.22-21.00.20:373][  0]LogTcpMessaging: Initializing TcpMessaging bridge
[2019.07.22-21.00.20:386][  0]LogUdpMessaging: Initializing bridge on interface 0.0.0.0:0 to multicast group 230.0.0.1:6666.
[2019.07.22-21.00.20:488][  0]SourceControl: Source control is disabled
[2019.07.22-21.00.20:488][  0]SourceControl: Source control is disabled
[2019.07.22-21.00.20:490][  0]SourceControl: Source control is disabled
[2019.07.22-21.00.20:491][  0]SourceControl: Source control is disabled
[2019.07.22-21.00.20:542][  0]LogAndroidPermission: UAndroidPermissionCallbackProxy::GetInstance
[2019.07.22-21.00.20:579][  0]LogOcInput: OculusInput pre-init called
[2019.07.22-21.00.21:093][  0]LogEngine: Initializing Engine...
[2019.07.22-21.00.21:094][  0]LogHMD: Failed to initialize OpenVR with code 110
[2019.07.22-21.00.21:094][  0]LogStats: UGameplayTagsManager::InitializeManager -  0.000 s
[2019.07.22-21.00.21:246][  0]LogInit: Initializing FReadOnlyCVARCache
[2019.07.22-21.00.21:255][  0]LogAIModule: Creating AISystem for world Untitled
[2019.07.22-21.00.21:268][  0]LogInit: XAudio2 using 'Speakers (Realtek High Definition Audio)' : 2 channels at 48 kHz using 32 bits per sample (channel mask 0x3)
[2019.07.22-21.00.21:294][  0]LogInit: FAudioDevice initialized.
[2019.07.22-21.00.21:294][  0]LogNetVersion: Set ProjectVersion to 1.0.0.0. Version Checksum will be recalculated on next use.
[2019.07.22-21.00.21:361][  0]LogDerivedDataCache: Saved boot cache 0.07s 71MB C:/Users/STESANT1/AppData/Local/UnrealEngine/4.22/DerivedDataCache/Boot.ddc.
[2019.07.22-21.00.21:370][  0]LogInit: Texture streaming: Enabled
[2019.07.22-21.00.21:381][  0]LogEngineSessionManager: EngineSessionManager initialized
[2019.07.22-21.00.21:394][  0]LogInit: Transaction tracking system initialized
[2019.07.22-21.00.21:410][  0]BlueprintLog: New page: Editor Load
[2019.07.22-21.00.21:474][  0]LocalizationService: Localization service is disabled
[2019.07.22-21.00.21:687][  0]LogFileCache: Scanning file cache for directory 'C:/Users/STESANT1/Desktop/gam113-unreal-project/DMBasic_SSantos/Content/' took 0.01s
[2019.07.22-21.00.21:687][  0]LogCook: Display: Max memory allowance for cook 16384mb min free memory 0mb
[2019.07.22-21.00.21:687][  0]LogCook: Display: Mobile HDR setting 1
[2019.07.22-21.00.21:801][  0]SourceControl: Source control is disabled
[2019.07.22-21.00.21:801][  0]Cmd: MAP LOAD FILE="../../../../../../Users/STESANT1/Desktop/gam113-unreal-project/DMBasic_SSantos/Content/FirstPersonBP/Maps/FirstPersonExampleMap.umap" TEMPLATE=0 SHOWPROGRESS=1 FEATURELEVEL=3
[2019.07.22-21.00.21:801][  0]LightingResults: New page: Lighting Build
[2019.07.22-21.00.21:803][  0]MapCheck: New page: Map Check
[2019.07.22-21.00.21:803][  0]LightingResults: New page: Lighting Build
[2019.07.22-21.00.21:823][  0]LogUObjectHash: Compacting FUObjectHashTables data took   1.88ms
[2019.07.22-21.00.22:031][  0]LogAIModule: Creating AISystem for world FirstPersonExampleMap
[2019.07.22-21.00.22:038][  0]LogEditorServer: Finished looking for orphan Actors (0.000 secs)
[2019.07.22-21.00.22:060][  0]LogUObjectHash: Compacting FUObjectHashTables data took   1.52ms
[2019.07.22-21.00.22:060][  0]Cmd: MAP CHECKDEP NOCLEARLOG
[2019.07.22-21.00.22:060][  0]MapCheck: Map check complete: 0 Error(s), 0 Warning(s), took 0.095ms to complete.
[2019.07.22-21.00.22:060][  0]LogFileHelpers: Loading map 'FirstPersonExampleMap' took 0.259
[2019.07.22-21.00.22:142][  0]LogSlate: Updating window title bar state: overlay mode, drag disabled, window buttons hidden, title bar hidden
[2019.07.22-21.00.22:148][  0]LogSlate: Updating window title bar state: overlay mode, drag disabled, window buttons hidden, title bar hidden
[2019.07.22-21.00.22:155][  0]LogSlate: Updating window title bar state: overlay mode, drag disabled, window buttons hidden, title bar hidden
[2019.07.22-21.00.22:160][  0]LogSlate: Updating window title bar state: overlay mode, drag disabled, window buttons hidden, title bar hidden
[2019.07.22-21.00.22:164][  0]LogCollectionManager: Loaded 0 collections in 0.001030 seconds
[2019.07.22-21.00.22:189][  0]LogFileCache: Scanning file cache for directory 'C:/Users/STESANT1/Desktop/gam113-unreal-project/DMBasic_SSantos/Saved/Collections/' took 0.01s
[2019.07.22-21.00.22:189][  0]LogFileCache: Scanning file cache for directory 'C:/Users/STESANT1/Desktop/gam113-unreal-project/DMBasic_SSantos/Content/Developers/STESANT1/Collections/' took 0.00s
[2019.07.22-21.00.22:189][  0]LogFileCache: Scanning file cache for directory 'C:/Users/STESANT1/Desktop/gam113-unreal-project/DMBasic_SSantos/Content/Collections/' took 0.01s
[2019.07.22-21.00.22:189][  0]LogCollectionManager: Rebuilt the GUID cache for 0 collections in 0.000000 seconds
[2019.07.22-21.00.22:195][  0]LogContentBrowser: Native class hierarchy populated in 0.0065 seconds. Added 2732 classes and 659 folders.
[2019.07.22-21.00.22:200][  0]LogContentBrowser: Native class hierarchy updated for 'WidgetCarousel' in 0.0002 seconds. Added 0 classes and 0 folders.
[2019.07.22-21.00.22:201][  0]LogPakFile: Registered encryption key '00000000000000000000000000000000': 0 pak files mounted, 0 remain pending
[2019.07.22-21.00.22:201][  0]LogPakFile: Registered encryption key '00000000000000000000000000000000': 0 pak files mounted, 0 remain pending
[2019.07.22-21.00.22:201][  0]LogPakFile: Registered encryption key '00000000000000000000000000000000': 0 pak files mounted, 0 remain pending
[2019.07.22-21.00.22:202][  0]LogPakFile: Registered encryption key '00000000000000000000000000000000': 0 pak files mounted, 0 remain pending
[2019.07.22-21.00.22:202][  0]LogPakFile: Registered encryption key '00000000000000000000000000000000': 0 pak files mounted, 0 remain pending
[2019.07.22-21.00.22:202][  0]LogPakFile: Registered encryption key '00000000000000000000000000000000': 0 pak files mounted, 0 remain pending
[2019.07.22-21.00.22:202][  0]LogPakFile: Registered encryption key '00000000000000000000000000000000': 0 pak files mounted, 0 remain pending
[2019.07.22-21.00.22:203][  0]LogPakFile: Registered encryption key '00000000000000000000000000000000': 0 pak files mounted, 0 remain pending
[2019.07.22-21.00.22:203][  0]LogPakFile: Registered encryption key '00000000000000000000000000000000': 0 pak files mounted, 0 remain pending
[2019.07.22-21.00.22:203][  0]LogPakFile: Registered encryption key '00000000000000000000000000000000': 0 pak files mounted, 0 remain pending
[2019.07.22-21.00.22:204][  0]LogPakFile: Registered encryption key '00000000000000000000000000000000': 0 pak files mounted, 0 remain pending
[2019.07.22-21.00.22:204][  0]LogPakFile: Registered encryption key '00000000000000000000000000000000': 0 pak files mounted, 0 remain pending
[2019.07.22-21.00.22:204][  0]LogPakFile: Registered encryption key '00000000000000000000000000000000': 0 pak files mounted, 0 remain pending
[2019.07.22-21.00.22:204][  0]LogPakFile: Registered encryption key '00000000000000000000000000000000': 0 pak files mounted, 0 remain pending
[2019.07.22-21.00.22:205][  0]LogPakFile: Registered encryption key '00000000000000000000000000000000': 0 pak files mounted, 0 remain pending
[2019.07.22-21.00.22:205][  0]LogPakFile: Registered encryption key '00000000000000000000000000000000': 0 pak files mounted, 0 remain pending
[2019.07.22-21.00.22:205][  0]LogPakFile: Registered encryption key '00000000000000000000000000000000': 0 pak files mounted, 0 remain pending
[2019.07.22-21.00.22:206][  0]LogPakFile: Registered encryption key '00000000000000000000000000000000': 0 pak files mounted, 0 remain pending
[2019.07.22-21.00.22:206][  0]LogPakFile: Registered encryption key '00000000000000000000000000000000': 0 pak files mounted, 0 remain pending
[2019.07.22-21.00.22:206][  0]LogPakFile: Registered encryption key '00000000000000000000000000000000': 0 pak files mounted, 0 remain pending
[2019.07.22-21.00.22:206][  0]LogPakFile: Registered encryption key '00000000000000000000000000000000': 0 pak files mounted, 0 remain pending
[2019.07.22-21.00.22:207][  0]LogPakFile: Registered encryption key '00000000000000000000000000000000': 0 pak files mounted, 0 remain pending
[2019.07.22-21.00.22:207][  0]LogPakFile: Registered encryption key '00000000000000000000000000000000': 0 pak files mounted, 0 remain pending
[2019.07.22-21.00.22:207][  0]LogPakFile: Registered encryption key '00000000000000000000000000000000': 0 pak files mounted, 0 remain pending
[2019.07.22-21.00.22:208][  0]LogPakFile: Registered encryption key '00000000000000000000000000000000': 0 pak files mounted, 0 remain pending
[2019.07.22-21.00.22:208][  0]LogPakFile: Registered encryption key '00000000000000000000000000000000': 0 pak files mounted, 0 remain pending
[2019.07.22-21.00.22:224][  0]LogContentBrowser: Native class hierarchy updated for 'AddContentDialog' in 0.0002 seconds. Added 0 classes and 0 folders.
[2019.07.22-21.00.22:228][  0]LogContentBrowser: Native class hierarchy updated for 'SceneOutliner' in 0.0002 seconds. Added 1 classes and 2 folders.
[2019.07.22-21.00.22:238][  0]LogSlate: Took 0.000115 seconds to synchronously load lazily loaded font '../../../Engine/Content/Slate/Fonts/Roboto-Regular.ttf' (155K)
[2019.07.22-21.00.22:239][  0]LogSlate: Took 0.000124 seconds to synchronously load lazily loaded font '../../../Engine/Content/Slate/Fonts/Roboto-Bold.ttf' (160K)
[2019.07.22-21.00.22:243][  0]LogSlate: Took 0.000105 seconds to synchronously load lazily loaded font '../../../Engine/Content/Editor/Slate/Fonts/FontAwesome.ttf' (139K)
[2019.07.22-21.00.22:287][  0]LogRenderer: Reallocating scene render targets to support 1264x676 Format 10 NumSamples 1 (Frame:1).
[2019.07.22-21.00.22:383][  0]LogContentBrowser: Native class hierarchy updated for 'HierarchicalLODOutliner' in 0.0002 seconds. Added 0 classes and 0 folders.
[2019.07.22-21.00.22:383][  0]LogLoad: (Engine Initialization) Total time: 6.12 seconds
[2019.07.22-21.00.22:383][  0]LogLoad: (Engine Initialization) Total Blueprint compile time: 0.00 seconds
[2019.07.22-21.00.22:392][  0]LogWindowsTextInputMethodSystem: Display: IME system now deactivated.
[2019.07.22-21.00.22:409][  0]LogAssetRegistry: Asset discovery search completed in 3.4013 seconds
[2019.07.22-21.00.22:410][  0]LogCollectionManager: Rebuilt the object cache for 0 collections in 0.000000 seconds (found 0 objects)
[2019.07.22-21.00.22:410][  0]LogCollectionManager: Fixed up redirectors for 0 collections in 0.000029 seconds (updated 0 objects)
[2019.07.22-21.00.22:411][  0]LogContentStreaming: Texture pool size now 1000 MB
[2019.07.22-21.00.22:437][  0]LogSlate: Took 0.000149 seconds to synchronously load lazily loaded font '../../../Engine/Content/Slate/Fonts/Roboto-Light.ttf' (167K)
[2019.07.22-21.00.25:165][322]LogSlate: FSceneViewport::OnFocusLost() reason 2
[2019.07.22-21.00.25:951][416]LogSlate: FSceneViewport::OnFocusLost() reason 2
[2019.07.22-21.00.26:873][523]LogUObjectHash: Compacting FUObjectHashTables data took   0.52ms
[2019.07.22-21.00.26:874][523]Cmd: MAP LOAD FILE="../../../../../../Users/STESANT1/Desktop/gam113-unreal-project/DMBasic_SSantos/Content/DM-Basic_SSantos.umap" TEMPLATE=0 SHOWPROGRESS=1 FEATURELEVEL=3
[2019.07.22-21.00.26:876][523]LogSlate: Took 0.000095 seconds to synchronously load lazily loaded font '../../../Engine/Content/Slate/Fonts/Roboto-Light.ttf' (167K)
[2019.07.22-21.00.26:883][523]LightingResults: New page: Lighting Build
[2019.07.22-21.00.26:884][523]LoadErrors: New page: Loading map: DM-Basic_SSantos.umap
[2019.07.22-21.00.26:885][523]MapCheck: New page: Map Check
[2019.07.22-21.00.26:885][523]LightingResults: New page: Lighting Build
[2019.07.22-21.00.26:906][523]LogUObjectHash: Compacting FUObjectHashTables data took   1.25ms
[2019.07.22-21.00.27:454][523]LogAIModule: Creating AISystem for world DM-Basic_SSantos
[2019.07.22-21.00.27:574][523]LogEditorServer: Finished looking for orphan Actors (0.000 secs)
[2019.07.22-21.00.27:603][523]LogUObjectHash: Compacting FUObjectHashTables data took   1.53ms
[2019.07.22-21.00.27:624][523]Cmd: MAP CHECKDEP NOCLEARLOG
[2019.07.22-21.00.27:624][523]MapCheck: Map check complete: 0 Error(s), 0 Warning(s), took 0.163ms to complete.
[2019.07.22-21.00.27:625][523]LogFileHelpers: Loading map 'DM-Basic_SSantos' took 0.751
[2019.07.22-21.00.27:625][523]LogSlate: Window 'Open Level' being destroyed
[2019.07.22-21.00.29:577][626]LogSlate: FSceneViewport::OnFocusLost() reason 2
[2019.07.22-21.00.43:385][266]LogSlate: Window 'FBX Export Options' being destroyed
[2019.07.22-21.00.43:573][266]LogFbx: Warning: FBX version number for this version of the FBX SDK is 7.5.0


